…
merged1 <- merged %>% anti_join(stop)


book_words <- merged1 %>% count(Book, word, sort = TRUE) %>% ungroup()

total_words <- book_words %>% group_by(Book) %>% summarize(total = sum(n))

book_words <- left_join(book_words, total_words)

book_words
```

```
## # A tibble: 3,667 x 4
##    Book   word        n total
##    <chr>  <chr>   <int> <int>
##  1 Husam  الانسان    79  4521
##  2 Fenari واما       48  4820
##  3 Husam  شي         41  4521
##  4 Fenari شي         40  4820
##  5 Fenari الانسان    39  4820
##  6 Husam  انسان      38  4521
##  7 Husam  واما       36  4521
##  8 Husam  زيد        35  4521
##  9 Husam  حيوان      33  4521
## 10 Husam  ينتج       32  4521
## # … with 3,657 more rows
```
…
```r
freq_by_rank <- book_words %>% group_by(Book) %>% mutate(rank = row_number(),
`term frequency` = n/total) 

freq_by_rank
```

```
## # A tibble: 3,667 x 6
## # Groups:   Book [2]
##    Book   word        n total  rank `term frequency`
##    <chr>  <chr>   <int> <int> <int>            <dbl>
##  1 Husam  الانسان    79  4521     1          0.0175 
##  2 Fenari واما       48  4820     1          0.00996
##  3 Husam  شي         41  4521     2          0.00907
##  4 Fenari شي         40  4820     2          0.00830
##  5 Fenari الانسان    39  4820     3          0.00809
##  6 Husam  انسان      38  4521     3          0.00841
##  7 Husam  واما       36  4521     4          0.00796
##  8 Husam  زيد        35  4521     5          0.00774
##  9 Husam  حيوان      33  4521     6          0.00730
## 10 Husam  ينتج       32  4521     7          0.00708
## # … with 3,657 more rows
```
…
```r
book_words1 <- book_words %>% bind_tf_idf(word, Book, n)
book_words1
```

```
## # A tibble: 3,667 x 7
##    Book   word        n total      tf   idf tf_idf
##    <chr>  <chr>   <int> <int>   <dbl> <dbl>  <dbl>
##  1 Husam  الانسان    79  4521 0.0175      0      0
##  2 Fenari واما       48  4820 0.00996     0      0
##  3 Husam  شي         41  4521 0.00907     0      0
##  4 Fenari شي         40  4820 0.00830     0      0
##  5 Fenari الانسان    39  4820 0.00809     0      0
##  6 Husam  انسان      38  4521 0.00841     0      0
##  7 Husam  واما       36  4521 0.00796     0      0
##  8 Husam  زيد        35  4521 0.00774     0      0
##  9 Husam  حيوان      33  4521 0.00730     0      0
## 10 Husam  ينتج       32  4521 0.00708     0      0
## # … with 3,657 more rows
```

```r
book_words1 %>% select(-total) %>% arrange(desc(tf_idf))
```

```
## # A tibble: 3,667 x 6
##    Book   word         n      tf   idf  tf_idf
##    <chr>  <chr>    <int>   <dbl> <dbl>   <dbl>
##  1 Husam  اخره        30 0.00664 0.693 0.00460
##  2 Husam  اقول        28 0.00619 0.693 0.00429
##  3 Fenari اريد         9 0.00187 0.693 0.00129
##  4 Fenari مفهوم        9 0.00187 0.693 0.00129
##  5 Fenari ويسمى        9 0.00187 0.693 0.00129
##  6 Husam  بالتنافي     8 0.00177 0.693 0.00123
##  7 Fenari فانهما       8 0.00166 0.693 0.00115
##  8 Fenari معرف         8 0.00166 0.693 0.00115
##  9 Husam  اختلفتا      7 0.00155 0.693 0.00107
## 10 Husam  هاتين        7 0.00155 0.693 0.00107
## # … with 3,657 more rows
```
…
